…
<img src="man/figures/README-unnamed-chunk-3-1.png" width="100%" />

### Search an area for places

Note that `get_places()` does not implement a search grid. You are
limited to the nearest 60 results regardless of radius.

``` r
get_places(ne, radius = 200)
#> # A tibble: 60 x 11
#>    place_id name    lat  long vicinity types rating n_ratings price_level
#>    <chr>    <chr> <dbl> <dbl> <chr>    <lis>  <dbl>     <int>       <int>
#>  1 ChIJo2x… Manc…  43.0 -71.5 Manches… <chr…   NA          NA          NA
#>  2 ChIJaXa… Ash …  43.0 -71.5 118 Ash… <chr…    4.6        27          NA
#>  3 ChIJRfg… La C…  43.0 -71.5 103 Wal… <chr…    4           1          NA
#>  4 ChIJG2E… Grea…  43.0 -71.5 170 Low… <chr…    3           2          NA
#>  5 ChIJ8zX… Clea…  43.0 -71.5 154 Bri… <chr…    4.2        12          NA
#>  6 ChIJWaY… Ash …  43.0 -71.5 Manches… <chr…   NA          NA          NA
#>  7 ChIJUej… Ligh…  43.0 -71.5 615 Uni… <chr…   NA          NA          NA
#>  8 ChIJK-X… Unio…  43.0 -71.5 610 Uni… <chr…    3.7         3          NA
#>  9 ChIJm0_… The …  43.0 -71.5 High St… <chr…   NA          NA          NA
#> 10 ChIJVVV… Mich…  43.0 -71.5 587 Uni… <chr…    1           7          NA
#> # … with 50 more rows, and 2 more variables: business_status <chr>,
#> #   photos <list>
```
…
